E:\Eclipse\Workspaces\spring\iota-backend\src\main\java\com\iota\api\domain\Article.java
E:\Eclipse\Workspaces\spring\iota-backend\src\main\java\com\iota\api\SpringBootReactApplication.java
E:\Eclipse\Workspaces\spring\iota-backend\src\main\java\com\iota\api\BoostrapInitialData.java
E:\Eclipse\Workspaces\spring\iota-backend\src\main\java\com\iota\api\controller\ArticleController.java
E:\Eclipse\Workspaces\spring\iota-backend\src\main\java\com\iota\api\repository\ArticleRepository.java
E:\Eclipse\Workspaces\spring\iota-backend\src\main\java\com\iota\api\controller\ClientsController.java
E:\Eclipse\Workspaces\spring\iota-backend\src\main\java\com\iota\api\repository\ClientRepository.java
E:\Eclipse\Workspaces\spring\iota-backend\src\main\java\com\iota\api\domain\Client.java
